<?xml version="1.0" encoding="UTF-8"?>
<svg width="64px" height="64px" viewBox="0 0 64 64" version="1.1" xmlns="http://www.w3.org/2000/svg" xmlns:xlink="http://www.w3.org/1999/xlink">
    <!-- Generator: Sketch 62 (91390) - https://sketch.com -->
    <title>Group</title>
    <desc>Created with Sketch.</desc>
    <g id="Page-1" stroke="none" stroke-width="1" fill="none" fill-rule="evenodd">
        <g id="OmniLayer-Home" transform="translate(-772.000000, -470.000000)">
            <g id="features-small-section" transform="translate(0.000000, 22.000000)">
                <g id="Group-6-Copy-2" transform="translate(772.000000, 448.000000)">
                    <g id="Group">
                        <circle id="Oval" fill-opacity="0.252431163" fill="#D8D8D8" cx="32" cy="32" r="32"></circle>
                        <path d="M26,39.1537162 C26,40.027027 26.5981308,40.6030405 27.4766355,40.6030405 L28.2616822,40.6030405 L28.2616822,42.089527 C28.2616822,42.6097973 28.635514,43 29.1588785,43 C29.682243,43 30.0560748,42.6097973 30.0560748,42.089527 L30.0560748,40.6030405 L31.271028,40.6030405 L31.271028,42.089527 C31.271028,42.6097973 31.6635514,43 32.1682243,43 C32.6915888,43 33.0841121,42.6097973 33.0841121,42.089527 L33.0841121,40.5472973 C36.1869159,40.2314189 38,38.4476351 38,35.6976351 C38,33.6165541 36.7476636,32.0557432 34.8224299,31.4611486 C36.2056075,30.8108108 37.1588785,29.3243243 37.1588785,27.7449324 C37.1588785,25.4408784 35.5700935,23.7871622 33.0841121,23.3969595 L33.0841121,21.910473 C33.0841121,21.3716216 32.6915888,21 32.1682243,21 C31.6635514,21 31.271028,21.3716216 31.271028,21.910473 L31.271028,23.3226351 L30.0560748,23.3226351 L30.0560748,21.910473 C30.0560748,21.3716216 29.682243,21 29.1588785,21 C28.635514,21 28.2616822,21.3716216 28.2616822,21.910473 L28.2616822,23.3226351 L27.4766355,23.3226351 C26.6168224,23.3226351 26,23.9358108 26,24.7905405 L26,39.1537162 Z M29,30.9817653 L29,26 L32.0087977,26 C33.9090909,26 35,26.8632662 35,28.3919667 C35,30.064545 33.7683284,31.0177347 31.516129,30.99975 L29,30.9817653 Z M29,39 L29,33 L32.0647668,33 C34.6580311,33 36,34.0229508 36,35.9901639 C36,37.9377049 34.7124352,38.9606557 32.2642487,38.9803279 L29,39 Z" id="